<?xml version="1.0" encoding="UTF-8"?>
<session version="1.0">
<refactoring comment="Rename resource &apos;tesoenti-business-parent/it.ddway.tesoenti.tesoenti-business-client-0.0.1-SNAPSHOT&apos; to &apos;tesoenti-business-client&apos;" description="Rename resource &apos;it.ddway.tesoenti.tesoenti-business-client-0.0.1-SNAPSHOT&apos;" flags="7" id="org.eclipse.ltk.core.refactoring.rename.resource" input="it.ddway.tesoenti.tesoenti-business-client-0.0.1-SNAPSHOT" name="tesoenti-business-client" stamp="1480898327438" updateReferences="true"/>
</session>